{
  "implemented": true,
  "name": "Glimmet",
  "nationalPokedexNumber": 969,
  "primaryType": "rock",
  "secondaryType": "poison",
  "abilities": [
    "toxicdebris",
    "h:corrosion"
  ],
  "baseStats": {
    "hp": 48,
    "attack": 35,
    "defence": 42,
    "special_attack": 105,
    "special_defence": 60,
    "speed": 60
  },
  "behaviour": {
    "moving": {
      "fly": {
        "canFly": true
      }
    },
    "resting": {
      "canSleep": true,
      "willSleepOnBed": true,
      "depth": "normal",
      "light": "0-4"
    }
  },
  "catchRate": 70,
  "maleRatio": 0.5,
  "baseExperienceYield": 70,
  "baseFriendship": 50,
  "evYield": {
    "hp": 0,
    "attack": 0,
    "defence": 0,
    "special_attack": 1,
    "special_defence": 0,
    "speed": 0
  },
  "experienceGroup": "medium_slow",
  "eggCycles": 30,
  "eggGroups": [
    "mineral"
  ],
  "moves": [
    "1:harden",
    "1:rockthrow",
    "1:smackdown",
    "7:acidspray",
    "11:ancientpower",
    "15:rockpolish",
    "18:stealthrock",
    "22:venoshock",
    "26:sandstorm",
    "29:selfdestruct",
    "33:rockslide",
    "37:powergem",
    "41:acidarmor",
    "46:sludgewave",
    "egg:explosion",
    "egg:memento",
    "egg:toxic",
    "tm:acidspray",
    "tm:confuseray",
    "tm:dazzlinggleam",
    "tm:endure",
    "tm:facade",
    "tm:gunkshot",
    "tm:irondefense",
    "tm:lightscreen",
    "tm:mudshot",
    "tm:powergem",
    "tm:protect",
    "tm:raindance",
    "tm:reflect",
    "tm:rest",
    "tm:rockblast",
    "tm:rockslide",
    "tm:rocktomb",
    "tm:sandstorm",
    "tm:sleeptalk",
    "tm:sludgebomb",
    "tm:spikes",
    "tm:stealthrock",
    "tm:stoneedge",
    "tm:substitute",
    "tm:sunnyday",
    "tm:terablast",
    "tm:toxicspikes",
    "tm:venoshock"
  ],
  "labels": [
    "gen9"
  ],
  "aspects": [],
  "height": 7,
  "weight": 80,
  "evolutions": [
    {
      "id": "glimmet_glimmora",
      "variant": "level_up",
      "result": "glimmora",
      "consumeHeldItem": false,
      "learnableMoves": [
        "mortalspin"
      ],
      "requirements": [
        {
          "variant": "level",
          "minLevel": 35
        }
      ]
    }
  ],
  "baseScale": 0.45,
  "hitbox": {
    "width": 1,
    "height": 2,
    "fixed": false
  },
  "cannotDynamax": false,
  "pokedex": [
    "cobblemon.species.glimmet.desc"
  ]
}