{
  "implemented": true,
  "name": "Buizel",
  "nationalPokedexNumber": 418,
  "primaryType": "water",
  "abilities": [
    "swiftswim",
    "h:waterveil"
  ],
  "baseStats": {
    "hp": 55,
    "attack": 65,
    "defence": 35,
    "special_attack": 60,
    "special_defence": 30,
    "speed": 85
  },
  "catchRate": 190,
  "maleRatio": 0.5,
  "shoulderMountable": false,
  "baseExperienceYield": 66,
  "experienceGroup": "medium_fast",
  "eggCycles": 20,
  "eggGroups": [
    "water_1",
    "field"
  ],
  "behaviour": {
    "moving": {
      "swim": {
        "swimSpeed": 0.4,
        "canSwimInWater": true,
        "canBreatheUnderwater": true
      }
    }
  },
  "moves": [
    "1:growl",
    "1:sonicboom",
    "1:tackle",
    "1:watersport",
    "3:quickattack",
    "4:growl",
    "6:watergun",
    "7:soak",
    "7:watersport",
    "10:pursuit",
    "11:quickattack",
    "15:swift",
    "15:watergun",
    "18:bite",
    "18:pursuit",
    "21:aquajet",
    "21:swift",
    "24:aquajet",
    "27:doublehit",
    "28:agility",
    "31:whirlpool",
    "35:liquidation",
    "35:razorwind",
    "36:whirlpool",
    "38:aquatail",
    "41:agility",
    "45:hydropump",
    "45:razorwind",
    "49:wavecrash",
    "55:aquatail",
    "egg:aquaring",
    "egg:aquatail",
    "egg:batonpass",
    "egg:doubleslap",
    "egg:furycutter",
    "egg:furyswipes",
    "egg:headbutt",
    "egg:helpinghand",
    "egg:mefirst",
    "egg:mudslap",
    "egg:odorsleuth",
    "egg:slash",
    "egg:soak",
    "egg:switcheroo",
    "egg:tailslap",
    "tm:agility",
    "tm:attract",
    "tm:batonpass",
    "tm:blizzard",
    "tm:brickbreak",
    "tm:brine",
    "tm:bulkup",
    "tm:captivate",
    "tm:chillingwater",
    "tm:confide",
    "tm:crunch",
    "tm:dig",
    "tm:dive",
    "tm:doubleteam",
    "tm:echoedvoice",
    "tm:endure",
    "tm:facade",
    "tm:fling",
    "tm:focuspunch",
    "tm:frustration",
    "tm:hail",
    "tm:helpinghand",
    "tm:hiddenpower",
    "tm:hydropump",
    "tm:icebeam",
    "tm:icefang",
    "tm:icepunch",
    "tm:icespinner",
    "tm:icywind",
    "tm:irontail",
    "tm:liquidation",
    "tm:lowkick",
    "tm:lowsweep",
    "tm:mudslap",
    "tm:naturalgift",
    "tm:poweruppunch",
    "tm:protect",
    "tm:raindance",
    "tm:rest",
    "tm:return",
    "tm:rocksmash",
    "tm:rocktomb",
    "tm:round",
    "tm:scald",
    "tm:secretpower",
    "tm:sleeptalk",
    "tm:strength",
    "tm:substitute",
    "tm:surf",
    "tm:swagger",
    "tm:swift",
    "tm:takedown",
    "tm:taunt",
    "tm:terablast",
    "tm:thief",
    "tm:toxic",
    "tm:waterfall",
    "tm:waterpulse",
    "tm:whirlpool",
    "tutor:aquatail",
    "tutor:dive",
    "tutor:focuspunch",
    "tutor:headbutt",
    "tutor:helpinghand",
    "tutor:icepunch",
    "tutor:icywind",
    "tutor:irontail",
    "tutor:mudslap",
    "tutor:slash",
    "tutor:sleeptalk",
    "tutor:snore",
    "tutor:swift",
    "tutor:watergun",
    "tutor:waterpulse",
    "tutor:watersport"
  ],
  "labels": [
    "gen4"
  ],
  "pokedex": [
    "cobblemon.species.buizel.desc"
  ],
  "evolutions": [
    {
      "id": "buizel_floatzel",
      "variant": "level_up",
      "result": "floatzel",
      "consumeHeldItem": false,
      "learnableMoves": [],
      "requirements": [
        {
          "variant": "level",
          "minLevel": 26
        }
      ]
    }
  ],
  "baseScale": 0.7,
  "hitbox": {
    "width": 0.7,
    "height": 1.4,
    "fixed": false
  },
  "baseFriendship": 70,
  "evYield": {
    "hp": 0,
    "attack": 0,
    "defence": 0,
    "special_attack": 0,
    "special_defence": 0,
    "speed": 1
  },
  "height": 7,
  "weight": 295,
  "aspects": [],
  "cannotDynamax": false
}