{
  "implemented": true,
  "name": "Carnivine",
  "nationalPokedexNumber": 455,
  "primaryType": "grass",
  "abilities": [
    "levitate"
  ],
  "baseStats": {
    "hp": 74,
    "attack": 100,
    "defence": 72,
    "special_attack": 90,
    "special_defence": 72,
    "speed": 46
  },
  "catchRate": 200,
  "maleRatio": 0.5,
  "shoulderMountable": false,
  "baseExperienceYield": 159,
  "experienceGroup": "slow",
  "eggCycles": 25,
  "eggGroups": [
    "grass"
  ],
  "moves": [
    "1:bind",
    "1:growth",
    "7:bite",
    "11:vinewhip",
    "17:sweetscent",
    "21:ingrain",
    "27:feintattack",
    "31:leaftornado",
    "31:spitup",
    "31:stockpile",
    "31:swallow",
    "37:crunch",
    "37:spitup",
    "37:stockpile",
    "37:swallow",
    "41:crunch",
    "41:wringout",
    "47:powerwhip",
    "47:wringout",
    "50:powerwhip",
    "51:powerwhip",
    "egg:acidspray",
    "egg:gigadrain",
    "egg:grasswhistle",
    "egg:leechseed",
    "egg:magicalleaf",
    "egg:ragepowder",
    "egg:razorleaf",
    "egg:slam",
    "egg:sleeppowder",
    "egg:stunspore",
    "egg:synthesis",
    "egg:worryseed",
    "tm:attract",
    "tm:bulletseed",
    "tm:captivate",
    "tm:confide",
    "tm:cut",
    "tm:doubleteam",
    "tm:endure",
    "tm:energyball",
    "tm:facade",
    "tm:flash",
    "tm:fling",
    "tm:frustration",
    "tm:gigadrain",
    "tm:gigaimpact",
    "tm:grassknot",
    "tm:hiddenpower",
    "tm:hyperbeam",
    "tm:infestation",
    "tm:naturalgift",
    "tm:naturepower",
    "tm:payback",
    "tm:protect",
    "tm:rest",
    "tm:return",
    "tm:round",
    "tm:secretpower",
    "tm:sleeptalk",
    "tm:sludgebomb",
    "tm:solarbeam",
    "tm:substitute",
    "tm:sunnyday",
    "tm:swagger",
    "tm:swordsdance",
    "tm:thief",
    "tm:toxic",
    "tutor:bind",
    "tutor:bite",
    "tutor:bugbite",
    "tutor:defog",
    "tutor:furycutter",
    "tutor:gastroacid",
    "tutor:gigadrain",
    "tutor:knockoff",
    "tutor:mudslap",
    "tutor:ragepowder",
    "tutor:seedbomb",
    "tutor:sleeptalk",
    "tutor:snore",
    "tutor:synthesis",
    "tutor:throatchop",
    "tutor:worryseed"
  ],
  "labels": [
    "gen4"
  ],
  "pokedex": [
    "cobblemon.species.carnivine.desc"
  ],
  "evolutions": [],
  "baseScale": 0.75,
  "hitbox": {
    "width": 1.1,
    "height": 2.1,
    "fixed": false
  },
  "baseFriendship": 70,
  "evYield": {
    "hp": 0,
    "attack": 2,
    "defence": 0,
    "special_attack": 0,
    "special_defence": 0,
    "speed": 0
  },
  "height": 14,
  "weight": 270,
  "aspects": [],
  "cannotDynamax": false
}