{
  "species": "cobblemon:vivillon",
  "order": 0,
  "variations": [
    {
      "aspects": [],
      "poser": "cobblemon:vivillon",
      "model": "cobblemon:vivillon.geo",
      "texture": "cobblemon:textures/pokemon/0666_vivillon/vivillon.png",
      "layers": []
    },
    {
      "aspects": [
        "shiny"
      ],
      "texture": "cobblemon:textures/pokemon/0666_vivillon/vivillon_shiny.png"
    },
    {
      "aspects": [
        "vivillon-wings-archipelago"
      ],
      "layers": [
        {
          "name": "wings",
          "texture": "cobblemon:textures/pokemon/0666_vivillon/vivillon_wings_archipelago.png"
        }
      ]
    },
    {
      "aspects": [
        "vivillon-wings-continental"
      ],
      "layers": [
        {
          "name": "wings",
          "texture": "cobblemon:textures/pokemon/0666_vivillon/vivillon_wings_continental.png"
        }
      ]
    },
    {
      "aspects": [
        "vivillon-wings-elegant"
      ],
      "layers": [
        {
          "name": "wings",
          "texture": "cobblemon:textures/pokemon/0666_vivillon/vivillon_wings_elegant.png"
        }
      ]
    },
    {
      "aspects": [
        "vivillon-wings-fancy"
      ],
      "layers": [
        {
          "name": "wings",
          "texture": "cobblemon:textures/pokemon/0666_vivillon/vivillon_wings_fancy.png"
        }
      ]
    },
    {
      "aspects": [
        "vivillon-wings-garden"
      ],
      "layers": [
        {
          "name": "wings",
          "texture": "cobblemon:textures/pokemon/0666_vivillon/vivillon_wings_garden.png"
        }
      ]
    },
    {
      "aspects": [
        "vivillon-wings-high-plains"
      ],
      "layers": [
        {
          "name": "wings",
          "texture": "cobblemon:textures/pokemon/0666_vivillon/vivillon_wings_high_plains.png"
        }
      ]
    },
    {
      "aspects": [
        "vivillon-wings-icy-snow"
      ],
      "layers": [
        {
          "name": "wings",
          "texture": "cobblemon:textures/pokemon/0666_vivillon/vivillon_wings_icy_snow.png"
        }
      ]
    },
    {
      "aspects": [
        "vivillon-wings-jungle"
      ],
      "layers": [
        {
          "name": "wings",
          "texture": "cobblemon:textures/pokemon/0666_vivillon/vivillon_wings_jungle.png"
        }
      ]
    },
    {
      "aspects": [
        "vivillon-wings-marine"
      ],
      "layers": [
        {
          "name": "wings",
          "texture": "cobblemon:textures/pokemon/0666_vivillon/vivillon_wings_marine.png"
        }
      ]
    },
    {
      "aspects": [
        "vivillon-wings-meadow"
      ],
      "layers": [
        {
          "name": "wings",
          "texture": "cobblemon:textures/pokemon/0666_vivillon/vivillon_wings_meadow.png"
        }
      ]
    },
    {
      "aspects": [
        "vivillon-wings-modern"
      ],
      "layers": [
        {
          "name": "wings",
          "texture": "cobblemon:textures/pokemon/0666_vivillon/vivillon_wings_modern.png"
        }
      ]
    },
    {
      "aspects": [
        "vivillon-wings-modern"
      ],
      "layers": [
        {
          "name": "wings",
          "texture": "cobblemon:textures/pokemon/0666_vivillon/vivillon_wings_modern.png"
        }
      ]
    },
    {
      "aspects": [
        "vivillon-wings-monsoon"
      ],
      "layers": [
        {
          "name": "wings",
          "texture": "cobblemon:textures/pokemon/0666_vivillon/vivillon_wings_monsoon.png"
        }
      ]
    },
    {
      "aspects": [
        "vivillon-wings-ocean"
      ],
      "layers": [
        {
          "name": "wings",
          "texture": "cobblemon:textures/pokemon/0666_vivillon/vivillon_wings_ocean.png"
        }
      ]
    },
    {
      "aspects": [
        "vivillon-wings-poke-ball"
      ],
      "layers": [
        {
          "name": "wings",
          "texture": "cobblemon:textures/pokemon/0666_vivillon/vivillon_wings_pokeball.png"
        }
      ]
    },
    {
      "aspects": [
        "vivillon-wings-polar"
      ],
      "layers": [
        {
          "name": "wings",
          "texture": "cobblemon:textures/pokemon/0666_vivillon/vivillon_wings_polar.png"
        }
      ]
    },
    {
      "aspects": [
        "vivillon-wings-river"
      ],
      "layers": [
        {
          "name": "wings",
          "texture": "cobblemon:textures/pokemon/0666_vivillon/vivillon_wings_river.png"
        }
      ]
    },
    {
      "aspects": [
        "vivillon-wings-sandstorm"
      ],
      "layers": [
        {
          "name": "wings",
          "texture": "cobblemon:textures/pokemon/0666_vivillon/vivillon_wings_sandstorm.png"
        }
      ]
    },
    {
      "aspects": [
        "vivillon-wings-savanna"
      ],
      "layers": [
        {
          "name": "wings",
          "texture": "cobblemon:textures/pokemon/0666_vivillon/vivillon_wings_savanna.png"
        }
      ]
    },
    {
      "aspects": [
        "vivillon-wings-sun"
      ],
      "layers": [
        {
          "name": "wings",
          "texture": "cobblemon:textures/pokemon/0666_vivillon/vivillon_wings_sun.png"
        }
      ]
    },
    {
      "aspects": [
        "vivillon-wings-tundra"
      ],
      "layers": [
        {
          "name": "wings",
          "texture": "cobblemon:textures/pokemon/0666_vivillon/vivillon_wings_tundra.png"
        }
      ]
    },
    {
      "aspects": [
        "vivillon-wings-blazing"
      ],
      "layers": [
        {
          "name": "wings",
          "texture": "cobblemon:textures/pokemon/0666_vivillon/vivillon_wings_blazing.png"
        }
      ]
    },
    {
      "aspects": [
        "vivillon-wings-ender"
      ],
      "layers": [
        {
          "name": "wings",
          "texture": "cobblemon:textures/pokemon/0666_vivillon/vivillon_wings_ender.png"
        }
      ]
    }
  ]
}