{
  "implemented": true,
  "name": "Brionne",
  "nationalPokedexNumber": 729,
  "primaryType": "water",
  "abilities": [
    "torrent",
    "h:liquidvoice"
  ],
  "baseStats": {
    "hp": 60,
    "attack": 69,
    "defence": 69,
    "special_attack": 91,
    "special_defence": 81,
    "speed": 50
  },
  "catchRate": 45,
  "maleRatio": 0.875,
  "shoulderMountable": false,
  "baseExperienceYield": 147,
  "experienceGroup": "medium_slow",
  "eggCycles": 15,
  "eggGroups": [
    "water_1",
    "field"
  ],
  "behaviour": {
    "moving" : {
      "walk": {
        "walkSpeed": 0.2
      },
      "swim": {
        "canSwimInWater": true,
        "canBreatheUnderwater": true
      }
    },
    "resting": {
      "canSleep": false,
      "willSleepOnBed": false,
      "depth": "normal",
      "light": "0-4"
    }
  },
  "drops": {
    "amount": "1",
    "entries": [
      {
        "item": "cobblemon:mystic_water",
        "percentage": 10
      }
    ]
  },
  "moves": [
    "1:disarmingvoice",
    "1:growl",
    "1:pound",
    "1:watergun",
    "9:aquajet",
    "12:babydolleyes",
    "15:icywind",
    "20:sing",
    "25:bubblebeam",
    "30:encore",
    "33:doubleslap",
    "35:mistyterrain",
    "40:hypervoice",
    "45:moonblast",
    "46:captivate",
    "50:hydropump",
    "tm:acrobatics",
    "tm:amnesia",
    "tm:attract",
    "tm:blizzard",
    "tm:brine",
    "tm:charm",
    "tm:confide",
    "tm:dive",
    "tm:doubleteam",
    "tm:drainingkiss",
    "tm:echoedvoice",
    "tm:encore",
    "tm:endure",
    "tm:facade",
    "tm:frustration",
    "tm:hail",
    "tm:helpinghand",
    "tm:hiddenpower",
    "tm:hydropump",
    "tm:hypervoice",
    "tm:icebeam",
    "tm:icywind",
    "tm:irontail",
    "tm:mistyterrain",
    "tm:playrough",
    "tm:protect",
    "tm:raindance",
    "tm:rest",
    "tm:return",
    "tm:round",
    "tm:scald",
    "tm:sleeptalk",
    "tm:snore",
    "tm:substitute",
    "tm:surf",
    "tm:swagger",
    "tm:toxic",
    "tm:uproar",
    "tm:waterfall",
    "tm:whirlpool",
    "tm:wonderroom",
    "tm:workup",
    "tutor:aquatail",
    "tutor:covet",
    "tutor:flipturn",
    "tutor:helpinghand",
    "tutor:hypervoice",
    "tutor:icywind",
    "tutor:irontail",
    "tutor:snore",
    "tutor:tripleaxel",
    "tutor:uproar",
    "tutor:waterpledge",
    "tutor:waterpulse",
    "tutor:wonderroom"
  ],
  "labels": [
    "gen7"
  ],
  "pokedex": [
    "cobblemon.species.brionne.desc"
  ],
  "preEvolution": "popplio",
  "evolutions": [
    {
      "id": "brionne_primarina",
      "variant": "level_up",
      "result": "primarina",
      "consumeHeldItem": false,
      "learnableMoves": [
        "sparklingaria"
      ],
      "requirements": [
        {
          "variant": "level",
          "minLevel": 34
        }
      ]
    }
  ],
  "baseScale": 0.75,
  "hitbox": {
    "width": 1.05,
    "height": 1.25,
    "fixed": false
  },
  "baseFriendship": 50,
  "evYield": {
    "hp": 0,
    "attack": 0,
    "defence": 0,
    "special_attack": 2,
    "special_defence": 0,
    "speed": 0
  },
  "height": 6,
  "weight": 175,
  "aspects": [],
  "cannotDynamax": false
}