{
  "implemented": true,
  "name": "Mudbray",
  "nationalPokedexNumber": 749,
  "primaryType": "ground",
  "abilities": [
    "owntempo",
    "stamina",
    "h:innerfocus"
  ],
  "baseStats": {
    "hp": 70,
    "attack": 100,
    "defence": 70,
    "special_attack": 45,
    "special_defence": 55,
    "speed": 45
  },
  "behaviour": {
    "resting": {
      "canSleep": true,
      "willSleepOnBed": false,
      "depth": "normal",
      "light": "0-4"
    }
  },
  "catchRate": 190,
  "maleRatio": 0.5,
  "shoulderMountable": false,
  "baseExperienceYield": 77,
  "experienceGroup": "medium_fast",
  "eggCycles": 20,
  "eggGroups": [
    "field"
  ],
  "moves": [
    "1:mudslap",
    "1:rocksmash",
    "3:mudsport",
    "4:irondefense",
    "8:doublekick",
    "8:rototiller",
    "12:bulldoze",
    "16:stomp",
    "20:strength",
    "22:bide",
    "24:counter",
    "28:highhorsepower",
    "32:heavyslam",
    "36:earthquake",
    "40:megakick",
    "44:superpower",
    "egg:bodyslam",
    "egg:closecombat",
    "egg:doubleedge",
    "egg:endeavor",
    "egg:fissure",
    "egg:magnitude",
    "egg:mudbomb",
    "egg:roar",
    "egg:smackdown",
    "tm:attract",
    "tm:bodyslam",
    "tm:bulldoze",
    "tm:closecombat",
    "tm:confide",
    "tm:doubleteam",
    "tm:earthpower",
    "tm:earthquake",
    "tm:endure",
    "tm:facade",
    "tm:frustration",
    "tm:heavyslam",
    "tm:hiddenpower",
    "tm:highhorsepower",
    "tm:irondefense",
    "tm:ironhead",
    "tm:lowkick",
    "tm:lowsweep",
    "tm:megakick",
    "tm:mudslap",
    "tm:payback",
    "tm:protect",
    "tm:rest",
    "tm:return",
    "tm:roar",
    "tm:rockslide",
    "tm:rocktomb",
    "tm:round",
    "tm:sandstorm",
    "tm:sandtomb",
    "tm:sleeptalk",
    "tm:snore",
    "tm:stealthrock",
    "tm:stompingtantrum",
    "tm:stoneedge",
    "tm:substitute",
    "tm:sunnyday",
    "tm:superpower",
    "tm:swagger",
    "tm:takedown",
    "tm:terablast",
    "tm:toxic",
    "tutor:earthpower",
    "tutor:endeavor",
    "tutor:irondefense",
    "tutor:ironhead",
    "tutor:lowkick",
    "tutor:snore",
    "tutor:stealthrock",
    "tutor:stompingtantrum",
    "tutor:superpower"
  ],
  "labels": [
    "gen7"
  ],
  "pokedex": [
    "cobblemon.species.mudbray.desc"
  ],
  "evolutions": [
    {
      "id": "mudbray_mudsdale",
      "variant": "level_up",
      "result": "mudsdale",
      "consumeHeldItem": false,
      "learnableMoves": [],
      "requirements": [
        {
          "variant": "level",
          "minLevel": 30
        }
      ]
    }
  ],
  "baseScale": 1,
  "hitbox": {
    "width": 1,
    "height": 1,
    "fixed": false
  },
  "baseFriendship": 50,
  "evYield": {
    "hp": 0,
    "attack": 1,
    "defence": 0,
    "special_attack": 0,
    "special_defence": 0,
    "speed": 0
  },
  "height": 10,
  "weight": 1100,
  "aspects": [],
  "cannotDynamax": false
}