{
  "baseYield": {
    "min": 2,
    "max": 3
  },
  "preferredBiomeTags": [
    "cobblemon:is_bamboo",
    "cobblemon:is_mountain",
    "cobblemon:is_taiga"
  ],
  "growthTime": {
    "min": 50,
    "max": 60
  },
  "refreshRate": {
    "min": 16,
    "max": 26
  },
  "favoriteMulches": [
    "coarse"
  ],
  "growthFactors": [
    {
      "variant": "cobblemon:preferred_biome",
      "bonusYield": {
        "min": 1,
        "max": 2
      }
    }
  ],
  "spawnConditions": [
    {
      "variant": "cobblemon:preferred_biome",
      "minGroveSize": 3,
      "maxGroveSize": 5
    }
  ],
  "growthPoints": [
    {
      "position": {
        "x": 11.25,
        "y": -0.75,
        "z": 11.0
      },
      "rotation": {
        "x": 50.0,
        "y": 62.5,
        "z": -132.5
      }
    },
    {
      "position": {
        "x": 11.0,
        "y": -0.75,
        "z": 5.25
      },
      "rotation": {
        "x": 2.5,
        "y": -35.0,
        "z": -160.0
      }
    },
    {
      "position": {
        "x": 5.0,
        "y": -0.75,
        "z": 10.5
      },
      "rotation": {
        "x": 0.0,
        "y": 15.0,
        "z": 160.0
      }
    },
    {
      "position": {
        "x": 5.0,
        "y": -0.75,
        "z": 5.0
      },
      "rotation": {
        "x": -50.0,
        "y": 62.5,
        "z": 132.5
      }
    },
    {
      "position": {
        "x": 6.25,
        "y": 8.75,
        "z": 7.0
      },
      "rotation": {
        "x": -90.0,
        "y": 0.0,
        "z": 127.5
      }
    },
    {
      "position": {
        "x": 7.0,
        "y": 6.0,
        "z": 14.25
      },
      "rotation": {
        "x": 0.0,
        "y": -5.0,
        "z": 90.0
      }
    },
    {
      "position": {
        "x": 11.5,
        "y": 7.5,
        "z": 9.0
      },
      "rotation": {
        "x": 90.0,
        "y": 0.0,
        "z": 155.0
      }
    },
    {
      "position": {
        "x": 9.0,
        "y": 4.75,
        "z": 2.0
      },
      "rotation": {
        "x": 0.0,
        "y": -5.0,
        "z": -90.0
      }
    }
  ],
  "mutations": {
    "cobblemon:sitrus_berry": "cobblemon:enigma_berry",
    "cobblemon:rabuta_berry": "cobblemon:durin_berry"
  },
  "sproutShape": "tail-sprout",
  "matureShape": "tail-mature",
  "flavors": {
    "SPICY": 25,
    "DRY": 10
  },
  "weight": 2.0,
  "tintIndexes": [],
  "flowerModel": "cobblemon:flower.geo",
  "flowerTexture": "cobblemon:textures/berries/flower.png",
  "fruitModel": "cobblemon:babiri_berry.geo",
  "fruitTexture": "cobblemon:textures/berries/babiri.png"
}