{
  "baseYield": {
    "min": 2,
    "max": 3
  },
  "preferredBiomeTags": [
    "cobblemon:is_freezing",
    "cobblemon:is_taiga"
  ],
  "growthTime": {
    "min": 50,
    "max": 60
  },
  "refreshRate": {
    "min": 16,
    "max": 26
  },
  "favoriteMulches": [
    "coarse"
  ],
  "growthFactors": [
    {
      "variant": "cobblemon:preferred_biome",
      "bonusYield": {
        "min": 1,
        "max": 2
      }
    }
  ],
  "randomizedGrowthPoints": false,
  "spawnConditions": [
    {
      "variant": "cobblemon:preferred_biome",
      "minGroveSize": 3,
      "maxGroveSize": 5
    }
  ],
  "growthPoints": [
    {
      "position": {
        "x": 8.0,
        "y": 11.5,
        "z": 8.0
      },
      "rotation": {
        "x": 0.0,
        "y": 0.0,
        "z": 0.0
      }
    },
    {
      "position": {
        "x": 8.0,
        "y": 14.5,
        "z": 8.0
      },
      "rotation": {
        "x": 0.0,
        "y": 90.0,
        "z": 0.0
      }
    },
    {
      "position": {
        "x": 8.0,
        "y": 17.5,
        "z": 8.0
      },
      "rotation": {
        "x": 0.0,
        "y": -180.0,
        "z": 0.0
      }
    },
    {
      "position": {
        "x": 8.0,
        "y": 20.5,
        "z": 8.0
      },
      "rotation": {
        "x": 0.0,
        "y": -90.0,
        "z": 0.0
      }
    },
    {
      "position": {
        "x": 8.0,
        "y": 23.5,
        "z": 8.0
      },
      "rotation": {
        "x": 0.0,
        "y": 0.0,
        "z": 0.0
      }
    },
    {
      "position": {
        "x": 8.0,
        "y": 26.5,
        "z": 8.0
      },
      "rotation": {
        "x": 0.0,
        "y": 90.0,
        "z": 0.0
      }
    },
    {
      "position": {
        "x": 8.0,
        "y": 29.5,
        "z": 8.0
      },
      "rotation": {
        "x": 0.0,
        "y": -180.0,
        "z": 0.0
      }
    },
    {
      "position": {
        "x": 8.0,
        "y": 32.5,
        "z": 8.0
      },
      "rotation": {
        "x": 0.0,
        "y": -90.0,
        "z": 0.0
      }
    },
    {
      "position": {
        "x": 8.0,
        "y": 35.5,
        "z": 8.0
      },
      "rotation": {
        "x": 0.0,
        "y": 0.0,
        "z": 0.0
      }
    },
    {
      "position": {
        "x": 8.0,
        "y": 38.5,
        "z": 8.0
      },
      "rotation": {
        "x": 0.0,
        "y": 90.0,
        "z": 0.0
      }
    }
  ],
  "mutations": {
    "cobblemon:sitrus_berry": "cobblemon:enigma_berry",
    "cobblemon:nomel_berry": "cobblemon:grepa_berry"
  },
  "sproutShape": "sword-sprout",
  "matureShape": "sword-mature",
  "flavors": {
    "DRY": 10,
    "SOUR": 15
  },
  "weight": 2.0,
  "tintIndexes": [],
  "flowerModel": "cobblemon:flower.geo",
  "flowerTexture": "cobblemon:textures/berries/flower.png",
  "fruitModel": "cobblemon:yache_berry.geo",
  "fruitTexture": "cobblemon:textures/berries/yache.png"
}