{
  "implemented": true,
  "name": "Falinks",
  "nationalPokedexNumber": 870,
  "primaryType": "fighting",
  "abilities": [
    "battlearmor",
    "h:defiant"
  ],
  "baseStats": {
    "hp": 65,
    "attack": 100,
    "defence": 100,
    "special_attack": 70,
    "special_defence": 60,
    "speed": 75
  },
  "behaviour": {
    "moving": {
      "canLook": false,
      "walk": {
        "walkSpeed": 0.25
      }
    }
  },
  "catchRate": 45,
  "maleRatio": -1,
  "shoulderMountable": false,
  "baseExperienceYield": 165,
  "experienceGroup": "medium_fast",
  "eggCycles": 25,
  "eggGroups": [
    "fairy",
    "mineral"
  ],
  "moves": [
    "1:protect",
    "1:tackle",
    "5:rocksmash",
    "10:focusenergy",
    "15:headbutt",
    "20:bulkup",
    "25:endure",
    "30:reversal",
    "35:firstimpression",
    "40:noretreat",
    "45:irondefense",
    "50:closecombat",
    "55:megahorn",
    "60:counter",
    "tm:agility",
    "tm:assurance",
    "tm:beatup",
    "tm:bodypress",
    "tm:bodyslam",
    "tm:brickbreak",
    "tm:bulkup",
    "tm:closecombat",
    "tm:endure",
    "tm:facade",
    "tm:falseswipe",
    "tm:focusblast",
    "tm:focusenergy",
    "tm:gigaimpact",
    "tm:helpinghand",
    "tm:hyperbeam",
    "tm:irondefense",
    "tm:ironhead",
    "tm:megahorn",
    "tm:payback",
    "tm:poisonjab",
    "tm:protect",
    "tm:raindance",
    "tm:rest",
    "tm:retaliate",
    "tm:revenge",
    "tm:reversal",
    "tm:rockslide",
    "tm:rocktomb",
    "tm:round",
    "tm:screech",
    "tm:sleeptalk",
    "tm:smartstrike",
    "tm:snore",
    "tm:substitute",
    "tm:sunnyday",
    "tm:superpower",
    "tm:swordsdance",
    "tm:takedown",
    "tm:terablast",
    "tm:throatchop",
    "tm:trailblaze",
    "tm:zenheadbutt",
    "tutor:coaching"
  ],
  "labels": [
    "gen8"
  ],
  "pokedex": [
    "cobblemon.species.falinks.desc"
  ],
  "evolutions": [],
  "baseScale": 1,
  "hitbox": {
    "width": 2,
    "height": 0.8,
    "fixed": false
  },
  "baseFriendship": 50,
  "evYield": {
    "hp": 0,
    "attack": 2,
    "defence": 0,
    "special_attack": 0,
    "special_defence": 1,
    "speed": 0
  },
  "height": 30,
  "weight": 620,
  "aspects": [],
  "cannotDynamax": false
}