{
  "replace": false,
  "values": [
    "#cobblemon:is_freezing",
    "#cobblemon:is_cold_ocean",
    "#cobblemon:is_peak",
    "#cobblemon:is_taiga",
    "#cobblemon:is_tundra",
    {
      "id": "#byg:is_cold",
      "required": false
    },
	{
      "id": "#c:climate_cold",
      "required": false
    },
	{
      "id": "#forge:is_cold/overworld",
      "required": false
    },
    {
      "id": "wythers:berry_bog",
      "required": false
    }
  ]
}
