{
  "implemented": true,
  "name": "Nuzleaf",
  "nationalPokedexNumber": 274,
  "primaryType": "grass",
  "secondaryType": "dark",
  "abilities": [
    "chlorophyll",
    "earlybird",
    "h:pickpocket"
  ],
  "baseStats": {
    "hp": 70,
    "attack": 70,
    "defence": 40,
    "special_attack": 60,
    "special_defence": 40,
    "speed": 60
  },
  "catchRate": 120,
  "maleRatio": 0.5,
  "shoulderMountable": false,
  "baseExperienceYield": 119,
  "experienceGroup": "medium_slow",
  "eggCycles": 15,
  "eggGroups": [
    "field",
    "grass"
  ],
  "moves": [
    "1:absorb",
    "1:aircutter",
    "1:astonish",
    "1:explosion",
    "1:fakeout",
    "1:harden",
    "1:pound",
    "1:razorleaf",
    "1:swagger",
    "1:synthesis",
    "1:tackle",
    "1:torment",
    "9:growth",
    "12:rollout",
    "18:megadrain",
    "20:razorwind",
    "24:feintattack",
    "24:payback",
    "30:naturepower",
    "36:sunnyday",
    "43:extrasensory",
    "50:suckerpunch",
    "57:leafblade",
    "tm:amnesia",
    "tm:assurance",
    "tm:attract",
    "tm:beatup",
    "tm:bodyslam",
    "tm:brickbreak",
    "tm:bulletseed",
    "tm:captivate",
    "tm:confide",
    "tm:cut",
    "tm:darkpulse",
    "tm:dig",
    "tm:doubleteam",
    "tm:embargo",
    "tm:endure",
    "tm:energyball",
    "tm:explosion",
    "tm:facade",
    "tm:falseswipe",
    "tm:flash",
    "tm:fling",
    "tm:foulplay",
    "tm:frustration",
    "tm:gigadrain",
    "tm:grassknot",
    "tm:grassyterrain",
    "tm:hiddenpower",
    "tm:hyperbeam",
    "tm:leafblade",
    "tm:lowkick",
    "tm:lowsweep",
    "tm:megakick",
    "tm:nastyplot",
    "tm:naturalgift",
    "tm:naturepower",
    "tm:payback",
    "tm:powerswap",
    "tm:poweruppunch",
    "tm:protect",
    "tm:psychup",
    "tm:rest",
    "tm:retaliate",
    "tm:return",
    "tm:rockslide",
    "tm:rocksmash",
    "tm:rocktomb",
    "tm:round",
    "tm:secretpower",
    "tm:seedbomb",
    "tm:selfdestruct",
    "tm:shadowball",
    "tm:sleeptalk",
    "tm:snarl",
    "tm:snore",
    "tm:solarbeam",
    "tm:solarblade",
    "tm:strength",
    "tm:substitute",
    "tm:sunnyday",
    "tm:swagger",
    "tm:swift",
    "tm:swordsdance",
    "tm:thief",
    "tm:torment",
    "tm:toxic",
    "tutor:bodyslam",
    "tutor:darkpulse",
    "tutor:defensecurl",
    "tutor:defog",
    "tutor:doubleedge",
    "tutor:endure",
    "tutor:explosion",
    "tutor:foulplay",
    "tutor:furycutter",
    "tutor:gigadrain",
    "tutor:grassyglide",
    "tutor:headbutt",
    "tutor:lashout",
    "tutor:lowkick",
    "tutor:megakick",
    "tutor:mimic",
    "tutor:mudslap",
    "tutor:psychup",
    "tutor:rollout",
    "tutor:seedbomb",
    "tutor:selfdestruct",
    "tutor:sleeptalk",
    "tutor:snore",
    "tutor:spite",
    "tutor:substitute",
    "tutor:swagger",
    "tutor:swift",
    "tutor:swordsdance",
    "tutor:synthesis",
    "tutor:worryseed"
  ],
  "labels": [
    "gen3"
  ],
  "pokedex": [
    "cobblemon.species.nuzleaf.desc"
  ],
  "preEvolution": "seedot",
  "evolutions": [
    {
      "id": "nuzleaf_shiftry",
      "variant": "item_interact",
      "result": "shiftry",
      "consumeHeldItem": false,
      "learnableMoves": [
        "leaftornado"
      ],
      "requirements": [],
      "requiredContext": "cobblemon:leaf_stone"
    }
  ],
  "baseScale": 1,
  "hitbox": {
    "width": 1,
    "height": 1,
    "fixed": false
  },
  "baseFriendship": 50,
  "evYield": {
    "hp": 0,
    "attack": 2,
    "defence": 0,
    "special_attack": 0,
    "special_defence": 0,
    "speed": 0
  },
  "height": 10,
  "weight": 280,
  "aspects": [],
  "cannotDynamax": false
}